{
  "name": "Contact Us",
  "created": "2019-02-01T13:46:19.4161211+00:00",
  "pages": [
    {
      "fieldSets": [
        {
          "caption": null,
          "sortOrder": 0,
          "id": "9155904a-1fee-4398-8c09-0e801e790188",
          "page": "00000000-0000-0000-0000-000000000000",
          "containers": [
            {
              "caption": null,
              "width": 6,
              "fields": [
                {
                  "caption": "Your Name",
                  "tooltip": null,
                  "placeholder": null,
                  "cssClass": null,
                  "alias": "yourName",
                  "id": "eef59ddd-b1e4-4682-9e53-0e2af2698aa9",
                  "fieldTypeId": "3f92e01b-29e2-4a30-bf33-9df5580ed52c",
                  "prevalueSourceId": "00000000-0000-0000-0000-000000000000",
                  "dataSourceFieldKey": null,
                  "containsSensitiveData": false,
                  "mandatory": true,
                  "regex": null,
                  "requiredErrorMessage": null,
                  "invalidErrorMessage": null,
                  "condition": {
                    "id": "00000000-0000-0000-0000-000000000000",
                    "enabled": false,
                    "actionType": "Show",
                    "logicType": "All",
                    "rules": []
                  },
                  "settings": {
                    "DefaultValue": "",
                    "Placeholder": "Your Name"
                  },
                  "preValues": []
                },
                {
                  "caption": "Your Phone Number",
                  "tooltip": null,
                  "placeholder": null,
                  "cssClass": null,
                  "alias": "yourPhoneNumber",
                  "id": "caef98c1-9784-4171-e956-a71b152a7ba2",
                  "fieldTypeId": "3f92e01b-29e2-4a30-bf33-9df5580ed52c",
                  "prevalueSourceId": "00000000-0000-0000-0000-000000000000",
                  "dataSourceFieldKey": null,
                  "containsSensitiveData": false,
                  "mandatory": false,
                  "regex": "^[0-9]*$",
                  "requiredErrorMessage": null,
                  "invalidErrorMessage": null,
                  "condition": {
                    "id": "00000000-0000-0000-0000-000000000000",
                    "enabled": false,
                    "actionType": "Show",
                    "logicType": "All",
                    "rules": []
                  },
                  "settings": {
                    "DefaultValue": "",
                    "Placeholder": "Your Phone Number"
                  },
                  "preValues": []
                },
                {
                  "caption": "Your Email Address",
                  "tooltip": null,
                  "placeholder": null,
                  "cssClass": null,
                  "alias": "yourEmailAddress",
                  "id": "5d3bf368-17ef-4e14-cea2-c0d630bd3968",
                  "fieldTypeId": "3f92e01b-29e2-4a30-bf33-9df5580ed52c",
                  "prevalueSourceId": "00000000-0000-0000-0000-000000000000",
                  "dataSourceFieldKey": null,
                  "containsSensitiveData": false,
                  "mandatory": true,
                  "regex": "[a-zA-Z0-9_.+-]+@[a-zA-Z0-9-]+.[a-zA-Z0-9-.]+",
                  "requiredErrorMessage": null,
                  "invalidErrorMessage": null,
                  "condition": {
                    "id": "00000000-0000-0000-0000-000000000000",
                    "enabled": false,
                    "actionType": "Show",
                    "logicType": "All",
                    "rules": []
                  },
                  "settings": {
                    "DefaultValue": "",
                    "Placeholder": "Your Email Address"
                  },
                  "preValues": []
                },
                {
                  "caption": "Your Postcode",
                  "tooltip": null,
                  "placeholder": null,
                  "cssClass": null,
                  "alias": "yourPostcode",
                  "id": "def70d65-1d40-4ac2-dc81-747b06eacd52",
                  "fieldTypeId": "3f92e01b-29e2-4a30-bf33-9df5580ed52c",
                  "prevalueSourceId": "00000000-0000-0000-0000-000000000000",
                  "dataSourceFieldKey": null,
                  "containsSensitiveData": false,
                  "mandatory": false,
                  "regex": null,
                  "requiredErrorMessage": null,
                  "invalidErrorMessage": null,
                  "condition": {
                    "id": "00000000-0000-0000-0000-000000000000",
                    "enabled": false,
                    "actionType": "Show",
                    "logicType": "All",
                    "rules": []
                  },
                  "settings": {
                    "DefaultValue": "",
                    "Placeholder": "Your Postcode"
                  },
                  "preValues": []
                },
                {
                  "caption": "Enquiry Type",
                  "tooltip": "I'm interested in",
                  "placeholder": null,
                  "cssClass": null,
                  "alias": "enquiryType",
                  "id": "393a6a45-9375-4b42-cb49-a8ba29bb91f9",
                  "fieldTypeId": "0dd29d42-a6a5-11de-a2f2-222256d89593",
                  "prevalueSourceId": "00000000-0000-0000-0000-000000000000",
                  "dataSourceFieldKey": null,
                  "containsSensitiveData": false,
                  "mandatory": false,
                  "regex": null,
                  "requiredErrorMessage": null,
                  "invalidErrorMessage": null,
                  "condition": {
                    "id": "00000000-0000-0000-0000-000000000000",
                    "enabled": false,
                    "actionType": "Show",
                    "logicType": "All",
                    "rules": []
                  },
                  "settings": {
                    "DefaultValue": "I'm interested in"
                  },
                  "preValues": [
                    "Gin Tour",
                    "Gin Experience",
                    "Hen and Stag Breaks",
                    "Private Events"
                  ]
                }
              ]
            },
            {
              "caption": "",
              "width": 6,
              "fields": [
                {
                  "caption": "Your Enquiry",
                  "tooltip": null,
                  "placeholder": null,
                  "cssClass": null,
                  "alias": "yourEnquiry",
                  "id": "08149056-4309-4036-d072-4f3fd783984e",
                  "fieldTypeId": "023f09ac-1445-4bcb-b8fa-ab49f33bd046",
                  "prevalueSourceId": "00000000-0000-0000-0000-000000000000",
                  "dataSourceFieldKey": null,
                  "containsSensitiveData": false,
                  "mandatory": false,
                  "regex": null,
                  "requiredErrorMessage": null,
                  "invalidErrorMessage": null,
                  "condition": {
                    "id": "00000000-0000-0000-0000-000000000000",
                    "enabled": false,
                    "actionType": "Show",
                    "logicType": "All",
                    "rules": []
                  },
                  "settings": {
                    "DefaultValue": "",
                    "Placeholder": "Your Enquiry"
                  },
                  "preValues": []
                },
                {
                  "caption": "ReCaptcha",
                  "tooltip": null,
                  "placeholder": null,
                  "cssClass": null,
                  "alias": "reCaptcha",
                  "id": "ac0d2835-dd11-4796-d945-0ae303aae240",
                  "fieldTypeId": "b69deaeb-ed75-4dc9-bfb8-d036bf9d3730",
                  "prevalueSourceId": "00000000-0000-0000-0000-000000000000",
                  "dataSourceFieldKey": null,
                  "containsSensitiveData": false,
                  "mandatory": true,
                  "regex": null,
                  "requiredErrorMessage": null,
                  "invalidErrorMessage": null,
                  "condition": {
                    "id": "00000000-0000-0000-0000-000000000000",
                    "enabled": false,
                    "actionType": "Show",
                    "logicType": "All",
                    "rules": []
                  },
                  "settings": {
                    "Theme": "",
                    "Size": "normal",
                    "ErrorMessage": ""
                  },
                  "preValues": []
                },
                {
                  "caption": "I confirm I have read and agree to the Vale Resorts Privacy Policy",
                  "tooltip": "I confirm I have read and agree to the Vale Resorts Privacy Policy",
                  "placeholder": null,
                  "cssClass": null,
                  "alias": "iConfirmIHaveReadAndAgreeToTheValeResortsPrivacyPolicy",
                  "id": "8303c1b7-657f-4d96-8853-7c0d3a9e4e9d",
                  "fieldTypeId": "d5c0c390-ae9a-11de-a69e-666455d89593",
                  "prevalueSourceId": "00000000-0000-0000-0000-000000000000",
                  "dataSourceFieldKey": null,
                  "containsSensitiveData": false,
                  "mandatory": true,
                  "regex": null,
                  "requiredErrorMessage": null,
                  "invalidErrorMessage": null,
                  "condition": {
                    "id": "00000000-0000-0000-0000-000000000000",
                    "enabled": false,
                    "actionType": "Show",
                    "logicType": "All",
                    "rules": []
                  },
                  "settings": {
                    "DefaultValue": "true"
                  },
                  "preValues": []
                }
              ]
            }
          ],
          "condition": {
            "id": "00000000-0000-0000-0000-000000000000",
            "enabled": false,
            "actionType": "Show",
            "logicType": "All",
            "rules": []
          }
        },
        {
          "caption": "",
          "sortOrder": 0,
          "id": "d122e7f2-331c-4ae9-b3ed-9b1bc27a0b92",
          "page": "00000000-0000-0000-0000-000000000000",
          "containers": [
            {
              "caption": "",
              "width": 12,
              "fields": []
            }
          ],
          "condition": null
        }
      ],
      "caption": "GET IN TOUCH",
      "sortOrder": 0,
      "id": "00000000-0000-0000-0000-000000000000",
      "form": "00000000-0000-0000-0000-000000000000"
    }
  ],
  "id": "b7ae9cd9-ab39-4345-91f0-788b20a4fb54",
  "fieldIndicationType": "MarkMandatoryFields",
  "indicator": "*",
  "showValidationSummary": false,
  "hideFieldValidation": false,
  "requiredErrorMessage": "Please provide a value for {0}",
  "invalidErrorMessage": "Please provide a valid value for {0}",
  "messageOnSubmit": "Thank you for getting in touch. A member of our sales team will be in touch shortly.",
  "goToPageOnSubmit": 0,
  "xPathOnSubmit": null,
  "manualApproval": false,
  "storeRecordsLocally": true,
  "cssClass": "emailsignup",
  "disableDefaultStylesheet": false,
  "useClientDependency": false,
  "workflows": [
    "f063e40a-91c0-418e-8c6a-d469c9b5f30f"
  ],
  "datasource": null,
  "submitLabel": "Submit",
  "nextLabel": "Next",
  "prevLabel": "Previous"
}