{
  "name": "Email Signup",
  "created": "2019-01-15T12:55:29.9001881+00:00",
  "pages": [
    {
      "fieldSets": [
        {
          "caption": null,
          "sortOrder": 0,
          "id": "9155904a-1fee-4398-8c09-0e801e790188",
          "page": "00000000-0000-0000-0000-000000000000",
          "containers": [
            {
              "caption": null,
              "width": 6,
              "fields": [
                {
                  "caption": "Your Name",
                  "tooltip": "",
                  "placeholder": null,
                  "cssClass": null,
                  "alias": "yourName",
                  "id": "eef59ddd-b1e4-4682-9e53-0e2af2698aa9",
                  "fieldTypeId": "3f92e01b-29e2-4a30-bf33-9df5580ed52c",
                  "prevalueSourceId": "00000000-0000-0000-0000-000000000000",
                  "dataSourceFieldKey": null,
                  "containsSensitiveData": false,
                  "mandatory": true,
                  "regex": null,
                  "requiredErrorMessage": null,
                  "invalidErrorMessage": null,
                  "condition": {
                    "id": "00000000-0000-0000-0000-000000000000",
                    "enabled": false,
                    "actionType": "Show",
                    "logicType": "All",
                    "rules": []
                  },
                  "settings": {
                    "DefaultValue": "",
                    "Placeholder": "Your Name"
                  },
                  "preValues": []
                }
              ]
            },
            {
              "caption": "",
              "width": 6,
              "fields": [
                {
                  "caption": "Your Email Address",
                  "tooltip": "",
                  "placeholder": null,
                  "cssClass": null,
                  "alias": "yourEmailAddress",
                  "id": "5d3bf368-17ef-4e14-cea2-c0d630bd3968",
                  "fieldTypeId": "3f92e01b-29e2-4a30-bf33-9df5580ed52c",
                  "prevalueSourceId": "00000000-0000-0000-0000-000000000000",
                  "dataSourceFieldKey": null,
                  "containsSensitiveData": false,
                  "mandatory": true,
                  "regex": "[a-zA-Z0-9_.+-]+@[a-zA-Z0-9-]+.[a-zA-Z0-9-.]+",
                  "requiredErrorMessage": null,
                  "invalidErrorMessage": null,
                  "condition": {
                    "id": "00000000-0000-0000-0000-000000000000",
                    "enabled": false,
                    "actionType": "Show",
                    "logicType": "All",
                    "rules": []
                  },
                  "settings": {
                    "DefaultValue": "",
                    "Placeholder": "Your Email Address"
                  },
                  "preValues": []
                }
              ]
            }
          ],
          "condition": {
            "id": "00000000-0000-0000-0000-000000000000",
            "enabled": false,
            "actionType": "Show",
            "logicType": "All",
            "rules": []
          }
        },
        {
          "caption": "",
          "sortOrder": 0,
          "id": "d122e7f2-331c-4ae9-b3ed-9b1bc27a0b92",
          "page": "00000000-0000-0000-0000-000000000000",
          "containers": [
            {
              "caption": "",
              "width": 12,
              "fields": [
                {
                  "caption": "I confirm I have read and agree to the Vale Resorts Privacy Policy",
                  "tooltip": "I confirm I have read and agree to the Vale Resorts Privacy Policy",
                  "placeholder": null,
                  "cssClass": null,
                  "alias": "iConfirmIHaveReadAndAgreeToTheValeResortsPrivacyPolicy",
                  "id": "05747ff4-dd39-439b-e47b-4c219d8afa1e",
                  "fieldTypeId": "d5c0c390-ae9a-11de-a69e-666455d89593",
                  "prevalueSourceId": "00000000-0000-0000-0000-000000000000",
                  "dataSourceFieldKey": null,
                  "containsSensitiveData": false,
                  "mandatory": false,
                  "regex": null,
                  "requiredErrorMessage": null,
                  "invalidErrorMessage": null,
                  "condition": {
                    "id": "00000000-0000-0000-0000-000000000000",
                    "enabled": false,
                    "actionType": "Show",
                    "logicType": "All",
                    "rules": []
                  },
                  "settings": {
                    "DefaultValue": "true"
                  },
                  "preValues": []
                }
              ]
            }
          ],
          "condition": null
        }
      ],
      "caption": "",
      "sortOrder": 0,
      "id": "00000000-0000-0000-0000-000000000000",
      "form": "00000000-0000-0000-0000-000000000000"
    }
  ],
  "id": "cd0ad0dd-eaf4-4c8e-97a7-5356c6224f1e",
  "fieldIndicationType": "MarkMandatoryFields",
  "indicator": "*",
  "showValidationSummary": false,
  "hideFieldValidation": false,
  "requiredErrorMessage": "Please provide a value for {0}",
  "invalidErrorMessage": "Please provide a valid value for {0}",
  "messageOnSubmit": "Thank you for signing up to our Gin Club. Keep an eye on your inbox for exclusive offers and to be the first to hear the latest news.",
  "goToPageOnSubmit": 0,
  "xPathOnSubmit": null,
  "manualApproval": false,
  "storeRecordsLocally": true,
  "cssClass": "emailsignup",
  "disableDefaultStylesheet": false,
  "useClientDependency": false,
  "workflows": [
    "dccb658c-a292-47ff-b0b0-570a8367f8eb"
  ],
  "datasource": null,
  "submitLabel": "Submit",
  "nextLabel": "Next",
  "prevLabel": "Previous"
}